%YAML 1.1
%TAG !u! tag:unity3d.com,2011:
--- !u!319 &31900000
AvatarMask:
  m_ObjectHideFlags: 0
  m_CorrespondingSourceObject: {fileID: 0}
  m_PrefabInstance: {fileID: 0}
  m_PrefabAsset: {fileID: 0}
  m_Name: Humanoid
  m_Mask: 00000000010000000100000000000000000000000100000001000000010000000100000000000000000000000100000001000000
  m_Elements:
  - m_Path: 
    m_Weight: 1
  - m_Path: Character_1
    m_Weight: 1
  - m_Path: Root
    m_Weight: 1
  - m_Path: Root/Hips
    m_Weight: 1
  - m_Path: Root/Hips/LeftUpLeg
    m_Weight: 1
  - m_Path: Root/Hips/LeftUpLeg/LeftLeg
    m_Weight: 1
  - m_Path: Root/Hips/LeftUpLeg/LeftLeg/LeftFoot
    m_Weight: 1
  - m_Path: Root/Hips/LeftUpLeg/LeftLeg/LeftFoot/LeftToeBase
    m_Weight: 1
  - m_Path: Root/Hips/RightUpLeg
    m_Weight: 1
  - m_Path: Root/Hips/RightUpLeg/RightLeg
    m_Weight: 1
  - m_Path: Root/Hips/RightUpLeg/RightLeg/RightFoot
    m_Weight: 1
  - m_Path: Root/Hips/RightUpLeg/RightLeg/RightFoot/RightToeBase
    m_Weight: 1
  - m_Path: Root/Hips/Spine
    m_Weight: 1
  - m_Path: Root/Hips/Spine/Spine1
    m_Weight: 1
  - m_Path: Root/Hips/Spine/Spine1/LeftShoulder
    m_Weight: 1
  - m_Path: Root/Hips/Spine/Spine1/LeftShoulder/LeftArm
    m_Weight: 1
  - m_Path: Root/Hips/Spine/Spine1/LeftShoulder/LeftArm/LeftForeArm
    m_Weight: 1
  - m_Path: Root/Hips/Spine/Spine1/LeftShoulder/LeftArm/LeftForeArm/LeftHand
    m_Weight: 1
  - m_Path: Root/Hips/Spine/Spine1/Neck
    m_Weight: 1
  - m_Path: Root/Hips/Spine/Spine1/Neck/Head
    m_Weight: 1
  - m_Path: Root/Hips/Spine/Spine1/RightShoulder
    m_Weight: 1
  - m_Path: Root/Hips/Spine/Spine1/RightShoulder/RightArm
    m_Weight: 1
  - m_Path: Root/Hips/Spine/Spine1/RightShoulder/RightArm/RightForeArm
    m_Weight: 1
  - m_Path: Root/Hips/Spine/Spine1/RightShoulder/RightArm/RightForeArm/RightHand
    m_Weight: 1
