{
    "name": "vailshnast.uicomponents",
    "rootNamespace": "vailshnast.uicomponents",
    "references": [
        "GUID:3159471b6c3feb343ae79c6426f19747"
    ],
    "includePlatforms": [],
    "excludePlatforms": [],
    "allowUnsafeCode": false,
    "overrideReferences": false,
    "precompiledReferences": [],
    "autoReferenced": true,
    "defineConstraints": [],
    "versionDefines": [],
    "noEngineReferences": false
}