%YAML 1.1
%TAG !u! tag:unity3d.com,2011:
--- !u!114 &11400000
MonoBehaviour:
  m_ObjectHideFlags: 0
  m_CorrespondingSourceObject: {fileID: 0}
  m_PrefabInstance: {fileID: 0}
  m_PrefabAsset: {fileID: 0}
  m_GameObject: {fileID: 0}
  m_Enabled: 1
  m_EditorHideFlags: 0
  m_Script: {fileID: 11500000, guid: 94d2e231d084441283c1cb6c8a557bb1, type: 3}
  m_Name: SceneConfig
  m_EditorClassIdentifier: 
  InitializationScene:
    _asset: {fileID: 102900000, guid: cc96834b2e8b50e47aa51e2ba2982af3, type: 3}
    _path: Assets/ProjectRoot/Scenes/InitializationScene.unity
  LevelScenes:
  - _asset: {fileID: 102900000, guid: 9553fa05750da4d44a7aea51964c12b5, type: 3}
    _path: Assets/ProjectRoot/Scenes/Levels_Release/Level_1.unity
  - _asset: {fileID: 102900000, guid: 8815749d29f12994882c7bc9bc3bc4fc, type: 3}
    _path: Assets/ProjectRoot/Scenes/Levels_Release/Level_2.unity
  - _asset: {fileID: 102900000, guid: 895117f4b5a8137469ee44b5e8548bfe, type: 3}
    _path: Assets/ProjectRoot/Scenes/Levels_Release/Level_3.unity
  - _asset: {fileID: 102900000, guid: 8a0dc9edf0f8fad40a0940e48d6ad13e, type: 3}
    _path: Assets/ProjectRoot/Scenes/Levels_Release/Level_4.unity
  - _asset: {fileID: 102900000, guid: b76da9902113474409bdbe0f890b5f07, type: 3}
    _path: Assets/ProjectRoot/Scenes/Levels_Release/Level_5.unity
  - _asset: {fileID: 102900000, guid: 8ddf64c06ea70dd4fa26abd6e255867d, type: 3}
    _path: Assets/ProjectRoot/Scenes/Levels_Release/Level_6.unity
  - _asset: {fileID: 102900000, guid: f89d555c8839cf844bfb443f9e079f30, type: 3}
    _path: Assets/ProjectRoot/Scenes/Levels_Release/Level_7.unity
  - _asset: {fileID: 102900000, guid: 43aa87d0e5abb5d4a8fc3d9497913f91, type: 3}
    _path: Assets/ProjectRoot/Scenes/Levels_Release/Level_8.unity
  - _asset: {fileID: 102900000, guid: 8fb844c4ddedaa84695bad42edc32cbe, type: 3}
    _path: Assets/ProjectRoot/Scenes/Levels_Release/Level_9.unity
  - _asset: {fileID: 102900000, guid: 9a3234b988aa659448862943490d9faf, type: 3}
    _path: Assets/ProjectRoot/Scenes/Levels_Release/Level_10.unity
  - _asset: {fileID: 102900000, guid: e270546680931634aa2c497200bcc9b2, type: 3}
    _path: Assets/ProjectRoot/Scenes/Levels_Release/Level_11.unity
  - _asset: {fileID: 102900000, guid: c84a864e921fd0d4595b8bc86e871738, type: 3}
    _path: Assets/ProjectRoot/Scenes/Levels_Release/Level_12.unity
  - _asset: {fileID: 102900000, guid: 1abf4b5e1c2c1ed4aa6d9f39259102ec, type: 3}
    _path: Assets/ProjectRoot/Scenes/Levels_Release/Level_13.unity
  - _asset: {fileID: 102900000, guid: 3d936266aa1bfb443b672ef8e28d0480, type: 3}
    _path: Assets/ProjectRoot/Scenes/Levels_Release/Level_14.unity
  - _asset: {fileID: 102900000, guid: 943a75ccbe672f942b238236b68e812d, type: 3}
    _path: Assets/ProjectRoot/Scenes/Levels_Release/Level_15.unity
  - _asset: {fileID: 102900000, guid: 7a54bec3ad62b324d8a5154e175864e4, type: 3}
    _path: Assets/ProjectRoot/Scenes/Levels_Release/Level_16.unity
  LevelScenesFolder: Assets/ProjectRoot/Scenes/Levels_Release
