{
    "name": "vailshanst.spline.editor",
    "rootNamespace": "",
    "references": [
        "GUID:c9ca94733839d4725a39dbaae3b0e9b4"
    ],
    "includePlatforms": [
        "Editor"
    ],
    "excludePlatforms": [],
    "allowUnsafeCode": false,
    "overrideReferences": false,
    "precompiledReferences": [],
    "autoReferenced": true,
    "defineConstraints": [],
    "versionDefines": [],
    "noEngineReferences": false
}